ShiftMultiplier/simulation/qsim/IntegerMultiplier.msim.vcd
$comment
	File created using the following command:
		vcd file IntegerMultiplier.msim.vcd -direction
$end
$date
	Tue Apr 12 15:03:23 2016
$end
$version
	ModelSim Version 10.3d
$end
$timescale
	1ps
$end

$scope module IntegerMultiplier_vlg_vec_tst $end
$var reg 1 ! clock $end
$var reg 8 " multiplicand [7:0] $end
$var reg 8 # multiplier [7:0] $end
$var reg 1 $ start $end
$var wire 1 % counter0 [1] $end
$var wire 1 & counter0 [2] $end
$var wire 1 ' counter0 [3] $end
$var wire 1 ( counter0 [4] $end
$var wire 1 ) counter0 [5] $end
$var wire 1 * counter0 [6] $end
$var wire 1 + counter0 [7] $end
$var wire 1 , counter1 [1] $end
$var wire 1 - counter1 [2] $end
$var wire 1 . counter1 [3] $end
$var wire 1 / counter1 [4] $end
$var wire 1 0 counter1 [5] $end
$var wire 1 1 counter1 [6] $end
$var wire 1 2 counter1 [7] $end
$var wire 1 3 done $end
$var wire 1 4 product [16] $end
$var wire 1 5 product [15] $end
$var wire 1 6 product [14] $end
$var wire 1 7 product [13] $end
$var wire 1 8 product [12] $end
$var wire 1 9 product [11] $end
$var wire 1 : product [10] $end
$var wire 1 ; product [9] $end
$var wire 1 < product [8] $end
$var wire 1 = product [7] $end
$var wire 1 > product [6] $end
$var wire 1 ? product [5] $end
$var wire 1 @ product [4] $end
$var wire 1 A product [3] $end
$var wire 1 B product [2] $end
$var wire 1 C product [1] $end
$var wire 1 D product [0] $end
$var wire 1 E product0 [1] $end
$var wire 1 F product0 [2] $end
$var wire 1 G product0 [3] $end
$var wire 1 H product0 [4] $end
$var wire 1 I product0 [5] $end
$var wire 1 J product0 [6] $end
$var wire 1 K product0 [7] $end
$var wire 1 L product1 [1] $end
$var wire 1 M product1 [2] $end
$var wire 1 N product1 [3] $end
$var wire 1 O product1 [4] $end
$var wire 1 P product1 [5] $end
$var wire 1 Q product1 [6] $end
$var wire 1 R product1 [7] $end
$var wire 1 S product2 [1] $end
$var wire 1 T product2 [2] $end
$var wire 1 U product2 [3] $end
$var wire 1 V product2 [4] $end
$var wire 1 W product2 [5] $end
$var wire 1 X product2 [6] $end
$var wire 1 Y product2 [7] $end
$var wire 1 Z product3 [1] $end
$var wire 1 [ product3 [2] $end
$var wire 1 \ product3 [3] $end
$var wire 1 ] product3 [4] $end
$var wire 1 ^ product3 [5] $end
$var wire 1 _ product3 [6] $end
$var wire 1 ` product3 [7] $end
$var wire 1 a sampler $end

$scope module i1 $end
$var wire 1 b gnd $end
$var wire 1 c vcc $end
$var wire 1 d unknown $end
$var tri1 1 e devclrn $end
$var tri1 1 f devpor $end
$var tri1 1 g devoe $end
$var wire 1 h clock~input_o $end
$var wire 1 i multiplicand[7]~input_o $end
$var wire 1 j multiplicand[0]~input_o $end
$var wire 1 k R1|Add0~1_sumout $end
$var wire 1 l R1|regContents~0_combout $end
$var wire 1 m multiplicand[1]~input_o $end
$var wire 1 n R1|Add0~2 $end
$var wire 1 o R1|Add0~5_sumout $end
$var wire 1 p R1|regContents~1_combout $end
$var wire 1 q multiplicand[2]~input_o $end
$var wire 1 r R1|Add0~6 $end
$var wire 1 s R1|Add0~9_sumout $end
$var wire 1 t R1|regContents~2_combout $end
$var wire 1 u multiplicand[3]~input_o $end
$var wire 1 v R1|Add0~10 $end
$var wire 1 w R1|Add0~13_sumout $end
$var wire 1 x R1|regContents~3_combout $end
$var wire 1 y multiplicand[4]~input_o $end
$var wire 1 z R1|Add0~14 $end
$var wire 1 { R1|Add0~17_sumout $end
$var wire 1 | R1|regContents~4_combout $end
$var wire 1 } multiplicand[5]~input_o $end
$var wire 1 ~ R1|Add0~18 $end
$var wire 1 !! R1|Add0~21_sumout $end
$var wire 1 "! R1|regContents~5_combout $end
$var wire 1 #! multiplicand[6]~input_o $end
$var wire 1 $! R1|Add0~22 $end
$var wire 1 %! R1|Add0~25_sumout $end
$var wire 1 &! R1|regContents~6_combout $end
$var wire 1 '! multiplier[7]~input_o $end
$var wire 1 (! multiplier[0]~input_o $end
$var wire 1 )! R1|Add1~1_sumout $end
$var wire 1 *! R1|Add2~1_sumout $end
$var wire 1 +! multiplier[1]~input_o $end
$var wire 1 ,! R1|Add1~2 $end
$var wire 1 -! R1|Add1~5_sumout $end
$var wire 1 .! R1|Add2~2 $end
$var wire 1 /! R1|Add2~5_sumout $end
$var wire 1 0! multiplier[2]~input_o $end
$var wire 1 1! R1|Add1~6 $end
$var wire 1 2! R1|Add1~9_sumout $end
$var wire 1 3! R1|Add2~6 $end
$var wire 1 4! R1|Add2~9_sumout $end
$var wire 1 5! multiplier[3]~input_o $end
$var wire 1 6! R1|Add1~10 $end
$var wire 1 7! R1|Add1~13_sumout $end
$var wire 1 8! R1|Add2~10 $end
$var wire 1 9! R1|Add2~13_sumout $end
$var wire 1 :! multiplier[4]~input_o $end
$var wire 1 ;! R1|Add1~14 $end
$var wire 1 <! R1|Add1~17_sumout $end
$var wire 1 =! R1|Add2~14 $end
$var wire 1 >! R1|Add2~17_sumout $end
$var wire 1 ?! multiplier[5]~input_o $end
$var wire 1 @! R1|Add1~18 $end
$var wire 1 A! R1|Add1~21_sumout $end
$var wire 1 B! R1|Add2~18 $end
$var wire 1 C! R1|Add2~21_sumout $end
$var wire 1 D! multiplier[6]~input_o $end
$var wire 1 E! R1|Add1~22 $end
$var wire 1 F! R1|Add1~25_sumout $end
$var wire 1 G! R1|Add2~22 $end
$var wire 1 H! R1|Add2~25_sumout $end
$var wire 1 I! R1|Add1~26 $end
$var wire 1 J! R1|Add1~29_sumout $end
$var wire 1 K! R1|Add2~26 $end
$var wire 1 L! R1|Add2~29_sumout $end
$var wire 1 M! start~input_o $end
$var wire 1 N! C1|Selector1~0_combout $end
$var wire 1 O! C1|state.startS~q $end
$var wire 1 P! C1|count~0_combout $end
$var wire 1 Q! C1|state~8_combout $end
$var wire 1 R! C1|Add1~1_combout $end
$var wire 1 S! C1|Add1~0_combout $end
$var wire 1 T! C1|Add1~3_combout $end
$var wire 1 U! C1|Add1~2_combout $end
$var wire 1 V! C1|Equal0~0_combout $end
$var wire 1 W! C1|Selector2~0_combout $end
$var wire 1 X! C1|state.q~q $end
$var wire 1 Y! C1|Selector3~0_combout $end
$var wire 1 Z! C1|state.addS~q $end
$var wire 1 [! R1|Add2~30 $end
$var wire 1 \! R1|Add2~33_sumout $end
$var wire 1 ]! R1|regContents~9_combout $end
$var wire 1 ^! ~GND~combout $end
$var wire 1 _! R1|regContents[15]~8_combout $end
$var wire 1 `! R1|Add0~26 $end
$var wire 1 a! R1|Add0~29_sumout $end
$var wire 1 b! R1|regContents~7_combout $end
$var wire 1 c! C1|Selector4~0_combout $end
$var wire 1 d! C1|state.shiftS~q $end
$var wire 1 e! C1|Selector0~1_combout $end
$var wire 1 f! C1|Selector0~0_combout $end
$var wire 1 g! C1|state.stop~q $end
$var wire 1 h! R1|Add3~1_sumout $end
$var wire 1 i! R1|Add3~2 $end
$var wire 1 j! R1|Add3~5_sumout $end
$var wire 1 k! R1|Add3~6 $end
$var wire 1 l! R1|Add3~9_sumout $end
$var wire 1 m! R1|Add3~10 $end
$var wire 1 n! R1|Add3~13_sumout $end
$var wire 1 o! R1|Add3~14 $end
$var wire 1 p! R1|Add3~17_sumout $end
$var wire 1 q! R1|Add3~18 $end
$var wire 1 r! R1|Add3~21_sumout $end
$var wire 1 s! R1|Add3~22 $end
$var wire 1 t! R1|Add3~25_sumout $end
$var wire 1 u! R1|Add3~26 $end
$var wire 1 v! R1|Add3~29_sumout $end
$var wire 1 w! R1|Add3~30 $end
$var wire 1 x! R1|Add3~33_sumout $end
$var wire 1 y! R1|Add3~34 $end
$var wire 1 z! R1|Add3~37_sumout $end
$var wire 1 {! R1|Add3~38 $end
$var wire 1 |! R1|Add3~41_sumout $end
$var wire 1 }! R1|Add3~42 $end
$var wire 1 ~! R1|Add3~45_sumout $end
$var wire 1 !" R1|Add3~46 $end
$var wire 1 "" R1|Add3~49_sumout $end
$var wire 1 #" R1|Add3~50 $end
$var wire 1 $" R1|Add3~53_sumout $end
$var wire 1 %" R1|Add3~54 $end
$var wire 1 &" R1|Add3~57_sumout $end
$var wire 1 '" R1|Add3~58 $end
$var wire 1 (" R1|Add3~61_sumout $end
$var wire 1 )" R1|Add3~62 $end
$var wire 1 *" R1|Add3~65_sumout $end
$var wire 1 +" C1|counter[0]~0_combout $end
$var wire 1 ," C1|Add0~1_sumout $end
$var wire 1 -" C1|Add0~2 $end
$var wire 1 ." C1|Add0~25_sumout $end
$var wire 1 /" C1|Add0~26 $end
$var wire 1 0" C1|Add0~21_sumout $end
$var wire 1 1" C1|Add0~22 $end
$var wire 1 2" C1|Add0~17_sumout $end
$var wire 1 3" C1|Add0~18 $end
$var wire 1 4" C1|Add0~13_sumout $end
$var wire 1 5" C1|Add0~14 $end
$var wire 1 6" C1|Add0~9_sumout $end
$var wire 1 7" C1|Add0~10 $end
$var wire 1 8" C1|Add0~5_sumout $end
$var wire 1 9" S5|output[7]~0_combout $end
$var wire 1 :" S5|output[6]~1_combout $end
$var wire 1 ;" S5|output[5]~2_combout $end
$var wire 1 <" S5|output[4]~3_combout $end
$var wire 1 =" S5|output[3]~4_combout $end
$var wire 1 >" S5|output[2]~5_combout $end
$var wire 1 ?" S5|output[1]~6_combout $end
$var wire 1 @" S4|output[7]~0_combout $end
$var wire 1 A" S4|output[6]~1_combout $end
$var wire 1 B" S4|output[5]~2_combout $end
$var wire 1 C" S4|output[4]~3_combout $end
$var wire 1 D" S4|output[3]~4_combout $end
$var wire 1 E" S4|output[2]~5_combout $end
$var wire 1 F" S4|output[1]~6_combout $end
$var wire 1 G" S3|output[7]~0_combout $end
$var wire 1 H" S3|output[6]~1_combout $end
$var wire 1 I" S3|output[5]~2_combout $end
$var wire 1 J" S3|output[4]~3_combout $end
$var wire 1 K" S3|output[3]~4_combout $end
$var wire 1 L" S3|output[2]~5_combout $end
$var wire 1 M" S3|output[1]~6_combout $end
$var wire 1 N" S2|output[7]~0_combout $end
$var wire 1 O" S2|output[6]~1_combout $end
$var wire 1 P" S2|output[5]~2_combout $end
$var wire 1 Q" S2|output[4]~3_combout $end
$var wire 1 R" S2|output[3]~4_combout $end
$var wire 1 S" S2|output[2]~5_combout $end
$var wire 1 T" S2|output[1]~6_combout $end
$var wire 1 U" S1|output[7]~0_combout $end
$var wire 1 V" S1|output[6]~1_combout $end
$var wire 1 W" S1|output[5]~2_combout $end
$var wire 1 X" S1|output[4]~3_combout $end
$var wire 1 Y" S1|output[3]~4_combout $end
$var wire 1 Z" S1|output[2]~5_combout $end
$var wire 1 [" S1|output[1]~6_combout $end
$var wire 1 \" S0|output[7]~0_combout $end
$var wire 1 ]" S0|output[6]~1_combout $end
$var wire 1 ^" S0|output[5]~2_combout $end
$var wire 1 _" S0|output[4]~3_combout $end
$var wire 1 `" S0|output[3]~4_combout $end
$var wire 1 a" S0|output[2]~5_combout $end
$var wire 1 b" S0|output[1]~6_combout $end
$var wire 1 c" C1|count [4] $end
$var wire 1 d" C1|count [3] $end
$var wire 1 e" C1|count [2] $end
$var wire 1 f" C1|count [1] $end
$var wire 1 g" C1|count [0] $end
$var wire 1 h" R1|regContents [16] $end
$var wire 1 i" R1|regContents [15] $end
$var wire 1 j" R1|regContents [14] $end
$var wire 1 k" R1|regContents [13] $end
$var wire 1 l" R1|regContents [12] $end
$var wire 1 m" R1|regContents [11] $end
$var wire 1 n" R1|regContents [10] $end
$var wire 1 o" R1|regContents [9] $end
$var wire 1 p" R1|regContents [8] $end
$var wire 1 q" R1|regContents [7] $end
$var wire 1 r" R1|regContents [6] $end
$var wire 1 s" R1|regContents [5] $end
$var wire 1 t" R1|regContents [4] $end
$var wire 1 u" R1|regContents [3] $end
$var wire 1 v" R1|regContents [2] $end
$var wire 1 w" R1|regContents [1] $end
$var wire 1 x" R1|regContents [0] $end
$var wire 1 y" C1|counter [7] $end
$var wire 1 z" C1|counter [6] $end
$var wire 1 {" C1|counter [5] $end
$var wire 1 |" C1|counter [4] $end
$var wire 1 }" C1|counter [3] $end
$var wire 1 ~" C1|counter [2] $end
$var wire 1 !# C1|counter [1] $end
$var wire 1 "# C1|counter [0] $end
$upscope $end
$upscope $end
$enddefinitions $end
#0
$dumpvars
0!
b1010101 "
b11100111 #
1$
02!
03!
04!
05!
06!
17!
08!
19!
0:!
0;!
1<!
0=!
1>!
1?!
0@!
0A!
0B!
0C!
1D!
0E!
0F!
0G!
0H!
0I!
0J!
0K!
0L!
1M!
1N!
0O!
1P!
0Q!
0R!
0S!
0T!
0U!
1V!
0W!
0X!
0Y!
0Z!
0[!
0\!
0]!
0^!
0_!
0`!
1a!
0b!
0c!
0d!
0e!
1f!
0g!
0h!
1i!
0j!
1k!
0l!
1m!
0n!
1o!
0p!
1q!
0r!
1s!
0t!
1u!
0v!
1w!
0x!
1y!
0z!
1{!
0|!
1}!
0~!
1!"
0""
1#"
0$"
1%"
0&"
1'"
0("
1)"
0*"
1+"
0,"
0-"
0."
0/"
00"
01"
02"
03"
04"
05"
06"
07"
08"
09"
0:"
0;"
0<"
1="
0>"
0?"
0@"
0A"
0B"
0C"
1D"
0E"
0F"
1G"
0H"
0I"
0J"
0K"
0L"
0M"
1N"
0O"
0P"
0Q"
0R"
0S"
0T"
1U"
0V"
0W"
0X"
0Y"
0Z"
0["
1\"
0]"
0^"
0_"
0`"
0a"
0b"
0g"
0f"
0e"
0d"
0c"
0x"
0w"
0v"
0u"
0t"
0s"
0r"
0q"
0p"
0o"
0n"
0m"
0l"
0k"
0j"
0i"
0h"
0"#
0!#
0~"
0}"
0|"
0{"
0z"
0y"
1+
0*
0)
0(
0'
0&
0%
12
01
00
0/
0.
0-
0,
13
0D
0C
0B
0A
0@
0?
0>
0=
0<
0;
0:
09
08
07
06
05
04
1K
0J
0I
0H
0G
0F
0E
1R
0Q
0P
0O
0N
0M
0L
1Y
0X
0W
0V
0U
0T
0S
1`
0_
0^
0]
0\
0[
0Z
xa
0b
1c
xd
1e
1f
1g
0h
0i
1j
1k
1l
0m
0n
1o
0p
1q
0r
0s
1t
0u
0v
1w
0x
1y
0z
0{
1|
0}
0~
1!!
0"!
1#!
0$!
0%!
1&!
1'!
1(!
1)!
1*!
1+!
0,!
0-!
0.!
0/!
10!
01!
$end
#10000
1!
0a
1h
1"#
1g!
1O!
1_!
1Q!
03
1W!
0P!
0N!
1F"
1C"
1B"
1A"
1,"
0+"
1*
1)
1(
1%
#20000
0!
1a
0h
1r"
1t"
1v"
1x"
0i!
0m!
0q!
0u!
1h!
1l!
1p!
1t!
0k!
0o!
0s!
0w!
1>
1@
1B
1D
1j!
1n!
1r!
1v!
1Z"
1W"
0U"
1a"
1^"
0\"
0y!
0K
1I
1F
0R
1P
1M
1=
1?
1A
1C
0l!
0p!
0t!
1x!
1Y"
1X"
0W"
1`"
1_"
0^"
0{!
0I
1H
1G
0P
1O
1N
1<
0>
0@
0B
1z!
1T"
1Q"
1P"
1O"
0Z"
0Y"
1b"
0`"
0_"
0}!
0H
0G
1E
0N
0M
1X
1W
1V
1S
1;
1|!
0T"
0Q"
0N"
0!"
0Y
0V
0S
1:
1~!
1Q"
1N"
0#"
1Y
1V
19
1""
1S"
1R"
0P"
0O"
0N"
0%"
0Y
0X
0W
1U
1T
18
1$"
1M"
1J"
1I"
1H"
0'"
1_
1^
1]
1Z
17
1&"
0M"
0J"
0G"
0)"
0`
0]
0Z
16
1("
1J"
1G"
1`
1]
15
1*"
1L"
1K"
0I"
0H"
0G"
0`
0_
0^
1\
1[
14
#30000
1!
0a
1h
1!#
0"#
1X!
0O!
0_!
0Q!
0D"
1@"
0W!
1P!
1Y!
0F"
0C"
0B"
1+"
0)
0(
0%
0+
1'
#40000
0!
1a
0h
#50000
1!
0a
1h
1"#
1Z!
0X!
1_!
1D"
1-"
1c!
0Y!
1B"
0,"
0+"
1)
0'
1."
#60000
0!
1a
0h
1l"
1m"
1p"
1.!
1=!
1B!
0x!
0*!
0~!
09!
0""
0>!
08
09
0<
1/!
1>!
1C!
0J"
0R"
0Q"
0V
0U
0]
#70000
1!
0a
1h
1~"
0!#
0"#
1d!
0Z!
1Q!
0-"
1/"
0c!
1b!
1W!
1F"
1C"
0A"
1+"
0."
0/"
0*
1(
1%
1."
10"
00"
#80000
0!
1a
0h
0l"
1n"
0p"
1q"
0r"
1s"
0t"
1u"
0v"
1w"
0x"
1i!
0.!
0h!
0j!
1l!
0n!
1p!
0r!
1t!
0v!
0b!
1x!
1*!
0|!
14!
1""
0>!
18
0:
1<
0=
1>
0?
1@
0A
1B
0C
0D
1j!
0/!
1J"
0S"
1P"
1O"
1Z"
0X"
1W"
0a"
1_"
1^"
1I
1H
0F
1P
0O
1M
1X
1W
0T
1]
1C
0b"
1a"
0_"
0^"
0I
0H
1F
0E
#90000
1!
0a
1h
1"#
0d!
1X!
1g"
0_!
0Q!
0W!
1R!
0P!
1c!
1b!
0F"
0C"
1,"
0+"
0(
0%
1E"
1&
#100000
0!
1a
0h
#110000
1!
0a
1h
1!#
0"#
1d!
0X!
1_!
1Q!
0c!
0b!
1W!
0B"
1+"
0)
#120000
0!
1a
0h
0m"
1o"
0q"
1r"
0s"
1t"
0u"
1v"
0w"
1x"
0i!
1k!
0=!
1h!
0j!
0l!
1n!
0p!
1r!
0t!
1v!
0z!
1/!
1~!
19!
0k!
0B!
19
0;
1=
0>
1?
0@
1A
0B
0C
1D
1j!
1l!
1>!
1Q"
0O"
0Z"
1X"
0W"
0a"
1_"
1^"
1I
1H
0F
0P
1O
0M
0X
1V
1B
1C
0l!
0C!
1a"
1`"
0^"
0I
1G
1F
0B
1b"
0`"
0_"
0H
0G
1E
#130000
1!
0a
1h
1"#
0d!
1X!
1f"
0g"
1e!
0_!
0Q!
0@"
1-"
0W!
1P!
1Y!
1C"
1B"
1A"
0,"
0+"
1/"
1*
1)
1(
1+
0."
0E"
0&
10"
#140000
0!
1a
0h
#150000
1!
0a
1h
1}"
0~"
0!#
0"#
1Z!
0X!
1_!
1@"
0-"
0/"
11"
1c!
0Y!
0C"
0B"
0A"
1+"
1."
00"
01"
0*
0)
0(
0+
0."
10"
12"
02"
#160000
0!
1a
0h
1l"
1m"
1p"
1.!
1=!
1B!
0x!
0*!
0~!
09!
0""
0>!
13!
08
09
0<
0/!
1>!
1C!
0J"
0Q"
0P"
1N"
18!
1Y
0W
0V
0]
04!
19!
#170000
1!
0a
1h
1"#
1d!
0Z!
1Q!
0c!
1b!
1W!
1C"
1B"
1,"
0+"
1)
1(
#180000
0!
1a
0h
0l"
1q"
0r"
1s"
0t"
1u"
0v"
1w"
0x"
1i!
0h!
0j!
1l!
0n!
1p!
0r!
1t!
0v!
1""
0>!
18
0=
1>
0?
1@
0A
1B
0C
0D
1j!
1J"
1Z"
0X"
1W"
0a"
1_"
1^"
1I
1H
0F
1P
0O
1M
1]
1C
0b"
1a"
0_"
0^"
0I
0H
1F
0E
#190000
1!
0a
1h
1!#
0"#
0d!
1X!
1g"
0_!
0Q!
0W!
1S!
0R!
0P!
1c!
0B"
1+"
0)
#200000
0!
1a
0h
#210000
1!
0a
1h
1"#
1d!
0X!
1_!
1Q!
1-"
0c!
1W!
1F"
1E"
0C"
0,"
0+"
0(
1&
1%
1."
#220000
0!
1a
0h
0m"
1r"
0s"
1t"
0u"
1v"
0w"
1x"
0i!
1k!
1h!
0j!
0l!
1n!
0p!
1r!
0t!
1~!
09!
0k!
19
0>
1?
0@
1A
0B
0C
1D
1j!
1l!
0N"
0Z"
1Y"
0W"
1V"
0a"
1_"
1^"
1I
1H
0F
1Q
0P
1N
0M
0Y
1B
1C
0l!
1a"
1`"
0^"
0I
1G
1F
0B
1b"
0`"
0_"
0H
0G
1E
#230000
1!
0a
1h
1~"
0!#
0"#
0d!
1X!
1e"
0f"
0g"
0e!
0_!
0Q!
0D"
0@"
0-"
1/"
0W!
1P!
1Y!
0F"
1+"
0."
0/"
11"
0%
1+
1'
1."
00"
01"
10"
12"
02"
#240000
0!
1a
0h
#250000
1!
0a
1h
1"#
1Z!
0X!
1_!
1D"
1@"
1c!
0Y!
1F"
0E"
1A"
1,"
0+"
1*
0&
1%
0+
0'
#260000
0!
1a
0h
1k"
0n"
0o"
0p"
0.!
03!
08!
1G!
1x!
1*!
1z!
1/!
1|!
14!
0$"
0C!
0=!
07
1:
1;
1<
0/!
04!
19!
1H!
1M"
0L"
0K"
0J"
1H"
1S"
1R"
1Q"
0B!
1V
1U
1T
1_
0]
0\
0[
1Z
1>!
0G!
1C!
0H!
#270000
1!
0a
1h
1!#
0"#
1d!
0Z!
1Q!
0D"
0c!
0b!
1W!
0F"
1E"
0A"
1+"
0*
1&
0%
1'
#280000
0!
1a
0h
0k"
1l"
0q"
1s"
0t"
1u"
0v"
1w"
0x"
1i!
1B!
0h!
0j!
1l!
0n!
1p!
0r!
1v!
0""
0>!
1$"
0C!
17
08
1=
0?
1@
0A
1B
0C
0D
1j!
1C!
0M"
1L"
1K"
0H"
0Y"
1X"
1W"
0V"
0a"
1_"
1^"
1I
1H
0F
0Q
1P
1O
0N
0_
1\
1[
0Z
1C
0b"
1a"
0_"
0^"
0I
0H
1F
0E
#290000
1!
0a
1h
1"#
0d!
1X!
1g"
0_!
0Q!
1-"
0W!
1R!
0P!
1c!
1C"
0,"
0+"
1/"
1(
0."
11"
00"
12"
#300000
0!
1a
0h
#310000
1!
0a
1h
1|"
0}"
0~"
0!#
0"#
1d!
0X!
1_!
1Q!
1D"
0@"
0-"
0/"
01"
13"
0c!
1W!
0E"
0C"
1+"
1."
10"
1?"
1<"
1;"
1:"
02"
03"
11
10
1/
1,
0(
0&
1+
0'
0."
00"
12"
14"
04"
#320000
0!
1a
0h
0l"
1m"
0r"
1t"
0u"
1v"
0w"
1x"
0i!
1k!
1=!
0B!
1h!
0j!
0l!
1n!
0p!
1t!
0~!
09!
1""
1>!
0k!
1B!
18
09
1>
0@
1A
0B
0C
1D
1j!
1l!
0>!
0C!
1J"
0S"
0R"
1P"
1O"
1N"
1Z"
1Y"
0X"
0W"
1U"
0a"
1_"
1^"
1I
1H
0F
1R
0P
0O
1N
1M
1Y
1X
1W
0U
0T
1]
1B
1C
0l!
1C!
1a"
1`"
0^"
0I
1G
1F
0B
1b"
0`"
0_"
0H
0G
1E
#330000
1!
0a
1h
1"#
0d!
1X!
1f"
0g"
1e!
0_!
0Q!
0W!
1P!
1Y!
1F"
1C"
1B"
1A"
1,"
0+"
1*
1)
1(
1%
#340000
0!
1a
0h
#350000
1!
0a
1h
1!#
0"#
1Z!
0X!
1_!
0D"
1@"
1c!
0Y!
0F"
0C"
0B"
1+"
0)
0(
0%
0+
1'
#360000
0!
1a
0h
1k"
0m"
1p"
1.!
0=!
1G!
0x!
0*!
1~!
19!
0$"
0C!
0B!
07
19
0<
1/!
1>!
1H!
1M"
0L"
0K"
0J"
1H"
1S"
1R"
0Q"
0P"
0O"
0N"
0G!
0Y
0X
0W
0V
1U
1T
1_
0]
0\
0[
1Z
1C!
0H!
#370000
1!
0a
1h
1"#
1d!
0Z!
1Q!
1D"
1-"
0c!
1b!
1W!
1B"
0,"
0+"
1)
0'
1."
#380000
0!
1a
0h
0k"
1l"
0p"
1q"
0s"
1u"
0v"
1w"
0x"
1i!
0.!
1B!
0h!
0j!
1l!
0n!
1r!
0v!
0b!
1x!
1*!
0""
0>!
1$"
0C!
17
08
1<
0=
1?
0A
1B
0C
0D
1j!
0/!
1C!
0M"
1L"
1K"
0H"
1Q"
0Y"
0U"
0a"
1_"
1^"
1I
1H
0F
0R
0N
1V
0_
1\
1[
0Z
1C
0b"
1a"
0_"
0^"
0I
0H
1F
0E
#390000
1!
0a
1h
1~"
0!#
0"#
0d!
1X!
1g"
0_!
0Q!
0-"
1/"
0W!
1T!
0S!
0R!
0P!
1c!
1b!
1F"
1C"
0A"
1+"
0."
0/"
0*
1(
1%
1."
10"
00"
#400000
0!
1a
0h
#410000
1!
0a
1h
1"#
1d!
0X!
1_!
1Q!
0c!
0f!
0b!
0F"
0C"
1,"
0+"
0(
0%
1E"
1&
#420000
0!
1a
0h
0l"
1m"
0q"
1r"
0t"
1v"
0w"
1x"
0i!
1k!
1=!
0B!
1h!
0j!
0l!
1p!
0t!
1v!
0~!
09!
1""
1>!
0k!
1B!
18
09
1=
0>
1@
0B
0C
1D
1j!
1l!
0>!
0C!
1J"
0S"
0R"
1P"
1O"
1N"
1["
1b"
0a"
1_"
1^"
1]"
1\"
1K
1J
1I
1H
0F
1E
1L
1Y
1X
1W
0U
0T
1]
1B
1C
0l!
1C!
0b"
0E
0B
0_"
0\"
0K
0H
#430000
1!
0a
1h
1!#
0"#
0g!
0d!
1d"
0e"
0f"
0g"
0e!
0V!
0_!
0Q!
13
1f!
1P!
1N!
0B"
1+"
0)
#440000
0!
1a
0h
#450000
1!
0a
1h
1"#
1g!
1O!
1_!
1Q!
0@"
1-"
03
1W!
0P!
0N!
1C"
1B"
1A"
0,"
0+"
1/"
1*
1)
1(
1+
0."
0E"
0&
10"
#460000
0!
1a
0h
0m"
1t"
0u"
0=!
1n!
0p!
1~!
19!
0B!
19
0@
1A
1>!
1S"
1R"
0P"
0O"
0N"
0["
0Z"
1X"
1b"
1a"
0^"
0]"
0J
0I
1F
1E
1O
0M
0L
0Y
0X
0W
1U
1T
0C!
#470000
1!
0a
1h
1}"
0~"
0!#
0"#
1X!
0d"
0O!
0_!
0Q!
1V!
1@"
0-"
0/"
11"
0W!
1P!
0T!
1Y!
0C"
0B"
0A"
1+"
1."
00"
01"
13"
0*
0)
0(
0+
0."
10"
02"
03"
12"
14"
04"
#480000
0!
1a
0h
#490000
1!
0a
1h
1"#
1Z!
0X!
1_!
1c!
0Y!
1C"
1B"
1,"
0+"
1)
1(
#500000
0!
1a
0h
1l"
1m"
1p"
1.!
1=!
1B!
0x!
0*!
0~!
09!
0""
0>!
08
09
0<
1/!
1>!
1C!
0J"
0R"
0Q"
0V
0U
0]
#510000
1!
0a
1h
1!#
0"#
1d!
0Z!
1Q!
0c!
1b!
1W!
0B"
1+"
0)
#520000
0!
1a
0h
0l"
1n"
0p"
1q"
0r"
1s"
0t"
1u"
0v"
1w"
0x"
1i!
0.!
0h!
0j!
1l!
0n!
1p!
0r!
1t!
0v!
0b!
1x!
1*!
0|!
14!
1""
0>!
18
0:
1<
0=
1>
0?
1@
0A
1B
0C
0D
1j!
0/!
1J"
0S"
1P"
1O"
1Z"
0X"
1W"
0a"
1_"
1^"
1I
1H
0F
1P
0O
1M
1X
1W
0T
1]
1C
0b"
1a"
0_"
0^"
0I
0H
1F
0E
#530000
1!
0a
1h
1"#
0d!
1X!
1g"
0_!
0Q!
1-"
0W!
1R!
0P!
1c!
1b!
1F"
1E"
0C"
0,"
0+"
0(
1&
1%
1."
#540000
0!
1a
0h
#550000
1!
0a
1h
1~"
0!#
0"#
1d!
0X!
1_!
1Q!
0D"
0@"
0-"
1/"
0c!
0b!
1W!
0F"
1+"
0."
0/"
11"
0%
1+
1'
1."
00"
01"
13"
10"
02"
03"
12"
14"
04"
#560000
0!
1a
0h
0m"
1o"
0q"
1r"
0s"
1t"
0u"
1v"
0w"
1x"
0i!
1k!
0=!
1h!
0j!
0l!
1n!
0p!
1r!
0t!
1v!
0z!
1/!
1~!
19!
0k!
0B!
19
0;
1=
0>
1?
0@
1A
0B
0C
1D
1j!
1l!
1>!
1Q"
0O"
0Z"
1X"
0W"
0a"
1_"
1^"
1I
1H
0F
0P
1O
0M
0X
1V
1B
1C
0l!
0C!
1a"
1`"
0^"
0I
1G
1F
0B
1b"
0`"
0_"
0H
0G
1E
#570000
1!
0a
1h
1"#
0d!
1X!
1f"
0g"
1e!
0_!
0Q!
1D"
1@"
0W!
1P!
1Y!
1F"
0E"
1A"
1,"
0+"
1*
0&
1%
0+
0'
#580000
0!
1a
0h
#590000
1!
0a
1h
1!#
0"#
1Z!
0X!
1_!
0D"
1c!
0Y!
0F"
1E"
0A"
1+"
0*
1&
0%
1'
#600000
0!
1a
0h
1l"
1m"
1p"
1.!
1=!
1B!
0x!
0*!
0~!
09!
0""
0>!
13!
08
09
0<
0/!
1>!
1C!
0J"
0Q"
0P"
1N"
18!
1Y
0W
0V
0]
04!
19!
#610000
1!
0a
1h
1"#
1d!
0Z!
1Q!
1-"
0c!
1b!
1W!
1C"
0,"
0+"
1/"
1(
0."
11"
00"
13"
02"
14"
#620000
0!
1a
0h
0l"
1q"
0r"
1s"
0t"
1u"
0v"
1w"
0x"
1i!
0h!
0j!
1l!
0n!
1p!
0r!
1t!
0v!
1""
0>!
18
0=
1>
0?
1@
0A
1B
0C
0D
1j!
1J"
1Z"
0X"
1W"
0a"
1_"
1^"
1I
1H
0F
1P
0O
1M
1]
1C
0b"
1a"
0_"
0^"
0I
0H
1F
0E
#630000
1!
0a
1h
1{"
0|"
0}"
0~"
0!#
0"#
0d!
1X!
1g"
0_!
0Q!
1D"
0@"
0-"
0/"
01"
0="
19"
03"
15"
0W!
1S!
0R!
0P!
1c!
0E"
0C"
1+"
1."
10"
0?"
0<"
0;"
12"
04"
05"
00
0/
0,
0(
0&
02
1.
1+
0'
0."
00"
02"
14"
16"
06"
#640000
0!
1a
0h
#650000
1!
0a
1h
1"#
1d!
0X!
1_!
1Q!
0c!
1W!
1F"
1C"
1B"
1A"
1,"
0+"
1*
1)
1(
1%
